%YAML 1.1
%TAG !u! tag:unity3d.com,2011:
--- !u!1045 &1
EditorBuildSettings:
  m_ObjectHideFlags: 0
  serializedVersion: 2
  m_Scenes:
  - enabled: 1
    path: Assets/Scenes/Sandbox/sakuramoto/sakuramoto.unity
    guid: b30e66eab9756e94083e9f33595aa07d
  m_configObjects: {}
